…
``` r
# Sum total calories by elf
calories %>% 
  group_by(elf) %>% 
  summarize(sum = sum(cals)) %>% 
  arrange(desc(sum))
```

    ## # A tibble: 247 × 2
    ##      elf   sum
    ##    <dbl> <int>
    ##  1   180 66719
    ##  2    83 66339
    ##  3    96 65493
    ##  4   235 64482
    ##  5   105 64059
    ##  6   123 63747
    ##  7   182 63498
    ##  8   186 63121
    ##  9    65 63080
    ## 10   111 62600
    ## # … with 237 more rows
…
